Intro to GIS / Mapping Visualization in R
…
# load a sample of US cities
cities <- read_csv(here("data", "cities_with_coordinates.csv"))

Rows: 32 Columns: 6
── Column specification ────────────────────────────────────────────────────────
Delimiter: ","
chr (4): city, state, state_name, county_fips
dbl (2): lat, lon

ℹ Use `spec()` to retrieve the full column specification for this data.
ℹ Specify the column types or set `show_col_types = FALSE` to quiet this message.

cities

# A tibble: 32 × 6
   city        state state_name    county_fips   lat   lon
   <chr>       <chr> <chr>         <chr>       <dbl> <dbl>
 1 Baltimore   MD    Maryland      24510        39.3 -76.6
 2 Buffalo     NY    New York      36029        42.9 -78.8
 3 McAllen     TX    Texas         48215        26.2 -98.2
 4 Tulsa       OK    Oklahoma      40143        36.1 -95.9
 5 Chattanooga TN    Tennessee     47065        35.1 -85.2
 6 Savannah    GA    Georgia       13051        32.0 -81.2
 7 Topeka      KS    Kansas        20177        39.0 -95.7
 8 Morgantown  WV    West Virginia 54061        39.6 -79.9
 9 Janesville  WI    Wisconsin     55105        42.7 -89.0
10 Bentonville AR    Arkansas      05007        36.4 -94.2
# … with 22 more rows
…
# nice...

Example: Chrolopeth maps of House Districts

# We've done something with points, let's now look at a real-world chloropleth use case

# load dataset of district characteristics for pre-2018 election U.S. House districts
alldistricts <- readRDS(here("data", "alldistricts.rds"))

alldistricts

# A tibble: 435 × 15
   geoid state_…¹ house…² incum…³ race_…⁴ medin…⁵ medin…⁶ medage pct_r…⁷ pct_r…⁸
   <chr> <chr>    <chr>   <chr>   <chr>     <dbl> <chr>    <dbl>   <dbl> <chr>  
 1 0101  Alabama  AL-01   R       <NA>      44824 BELOW     39.1    34.7 BELOW  
 2 0102  Alabama  AL-02   R       <NA>      43173 BELOW     38.2    37.5 BELOW  
 3 0103  Alabama  AL-03   R       <NA>      42953 BELOW     38.1    31.6 BELOW  
 4 0104  Alabama  AL-04   R       <NA>      40267 BELOW     40.7    16.1 BELOW  
 5 0105  Alabama  AL-05   R       <NA>      51830 BELOW     39.3    26.8 BELOW  
 6 0106  Alabama  AL-06   R       <NA>      60706 ABOVE     38.8    23.0 BELOW  
 7 0107  Alabama  AL-07   D       <NA>      33366 BELOW     35.8    68.0 ABOVE  
 8 0200  Alaska   AK-00   R       <NA>      74444 ABOVE     33.6    38.0 BELOW  
 9 0401  Arizona  AZ-01   D       lean d…   48583 BELOW     36.8    50.5 ABOVE  
10 0402  Arizona  AZ-02   R       likely…   48125 BELOW     40.6    38.0 BELOW  
# … with 425 more rows, 5 more variables: pct_ed_college_all <dbl>,
#   pct_ed_college_all_abovebelow_natl <chr>, prez_winner_2016 <chr>,
#   house_winner_2016 <chr>, prez_winner_2012 <chr>, and abbreviated variable
#   names ¹​state_name, ²​house_dist, ³​incumbent_2018, ⁴​race_rating_2018,
#   ⁵​medincome, ⁶​medincome_abovebelow_natl, ⁷​pct_race_nonwhite,
#   ⁸​pct_race_nonwhite_abovebelow_natl
…
# Now let's do the join using sf's st_join() function
joined <- st_join(cities_geo_forjoin, districtmap_forjoin)

joined # %>% View()

Simple feature collection with 32 features and 26 fields
Geometry type: POINT
Dimension:     XY
Bounding box:  xmin: -1348660 ymin: -2072249 xmax: 2344294 ymax: 371478.2
Projected CRS: NAD27 / US National Atlas Equal Area
# A tibble: 32 × 27
   city  state state…¹ count…²             geometry STATEFP CD116FP AFFGEOID    
 * <chr> <chr> <chr>   <chr>            <POINT [m]> <chr>   <chr>   <chr>       
 1 Balt… MD    Maryla… 24510    (1986364 -349916.9) 24      07      5001600US24…
 2 Buff… NY    New Yo… 36029    (1703715 -11057.69) 36      26      5001600US36…
 3 McAl… TX    Texas   48215    (177487.1 -2072249) 48      15      5001600US48…
 4 Tulsa OK    Oklaho… 40143   (369590.1 -975297.7) 40      01      5001600US40…
 5 Chat… TN    Tennes… 47065    (1341985 -984720.7) 47      03      5001600US47…
 6 Sava… GA    Georgia 13051     (1771470 -1242026) 13      01      5001600US13…
 7 Tope… KS    Kansas  20177     (372991.1 -652712) 20      02      5001600US20…
 8 Morg… WV    West V… 54061    (1702391 -388317.6) 54      01      5001600US54…
 9 Jane… WI    Wiscon… 55105   (897211.2 -196961.2) 55      01      5001600US55…
10 Bent… AR    Arkans… 05007   (518773.1 -941495.1) 05      03      5001600US05…
# … with 22 more rows, 19 more variables: GEOID <chr>, LSAD <chr>,
#   CDSESSN <chr>, ALAND <dbl>, AWATER <dbl>, state_name.y <chr>,
#   house_dist <chr>, incumbent_2018 <chr>, race_rating_2018 <chr>,
#   medincome <dbl>, medincome_abovebelow_natl <chr>, medage <dbl>,
#   pct_race_nonwhite <dbl>, pct_race_nonwhite_abovebelow_natl <chr>,
#   pct_ed_college_all <dbl>, pct_ed_college_all_abovebelow_natl <chr>,
#   prez_winner_2016 <chr>, house_winner_2016 <chr>, prez_winner_2012 <chr>, …

# We can select just some relevant columns to simplify
joined %>% 
  select(city, state, house_dist)

Simple feature collection with 32 features and 3 fields
Geometry type: POINT
Dimension:     XY
Bounding box:  xmin: -1348660 ymin: -2072249 xmax: 2344294 ymax: 371478.2
Projected CRS: NAD27 / US National Atlas Equal Area
# A tibble: 32 × 4
   city        state house_dist             geometry
   <chr>       <chr> <chr>               <POINT [m]>
 1 Baltimore   MD    MD-07       (1986364 -349916.9)
 2 Buffalo     NY    NY-26       (1703715 -11057.69)
 3 McAllen     TX    TX-15       (177487.1 -2072249)
 4 Tulsa       OK    OK-01      (369590.1 -975297.7)
 5 Chattanooga TN    TN-03       (1341985 -984720.7)
 6 Savannah    GA    GA-01        (1771470 -1242026)
 7 Topeka      KS    KS-02        (372991.1 -652712)
 8 Morgantown  WV    WV-01       (1702391 -388317.6)
 9 Janesville  WI    WI-01      (897211.2 -196961.2)
10 Bentonville AR    AR-03      (518773.1 -941495.1)
# … with 22 more rows

# Cool, that's better. Though notice the geometry always travels with it.
# What if you wanted to just have a table as the result, without the geometry?
# The sf package to the rescue again...
matched_table <- joined %>% 
  select(city, state, house_dist) %>% 
  st_set_geometry(NULL)

matched_table

# A tibble: 32 × 3
   city        state house_dist
 * <chr>       <chr> <chr>     
 1 Baltimore   MD    MD-07     
 2 Buffalo     NY    NY-26     
 3 McAllen     TX    TX-15     
 4 Tulsa       OK    OK-01     
 5 Chattanooga TN    TN-03     
 6 Savannah    GA    GA-01     
 7 Topeka      KS    KS-02     
 8 Morgantown  WV    WV-01     
 9 Janesville  WI    WI-01     
10 Bentonville AR    AR-03     
# … with 22 more rows
…
Cool, so for the the whole country, that was easy enough. But what about if our need was to have maps for EVERY STATE. A separate map for each showing the same. Perhaps to go with state-specific pages on our website etc.

First, let’s solve for one state. How could we do that…

# Since the state abbreviation isn't in our current districtmap object, let's get it in there
fips_statelookup <- fips_codes %>% 
  as_tibble() %>% 
  select(state, state_code) %>% 
  distinct()

fips_statelookup

# A tibble: 57 × 2
   state state_code
   <chr> <chr>     
 1 AL    01        
 2 AK    02        
 3 AZ    04        
 4 AR    05        
 5 CA    06        
 6 CO    08        
 7 CT    09        
 8 DE    10        
 9 DC    11        
10 FL    12        
# … with 47 more rows
…
